4.913121342086791969e+02
3.454972827911377209e+01
1.903052625656128072e+01
1.689666683197021513e+01
1.571442687988281328e+01
1.464911323547363331e+01
1.358071901321411090e+01
1.289297196388244693e+01
1.224377247810363833e+01
1.164052523612976131e+01
1.122855321884155266e+01
1.076348914146423397e+01
1.045357051849365249e+01
1.010053533554077099e+01
9.873016195297241282e+00
9.746371116638183452e+00
9.425278673171996857e+00
9.353841905593872852e+00
9.077411589622498056e+00
9.470407876968383931e+00
8.912340168952942676e+00
8.795767879486083629e+00
8.703905301094055247e+00
8.617964782714842897e+00
8.525876441001891237e+00
8.513256239891052957e+00
8.481211009025573233e+00
8.491702890396117809e+00
8.219949684143067259e+00
8.002887587547302672e+00
7.978512992858886932e+00
7.886352663040161026e+00
7.911343774795532191e+00
7.824704723358154368e+00
7.834356665611267090e+00
7.637365665435790874e+00
7.541080102920532546e+00
7.553767433166504119e+00
7.501822228431701767e+00
7.587792754173278809e+00
7.394990787506103835e+00
7.342322139739990483e+00
7.372552986145019638e+00
7.350848622322082804e+00
7.318053517341613912e+00
7.250997786521911515e+00
7.231845660209655691e+00
7.204486904144286719e+00
7.183444390296935822e+00
7.172723078727722523e+00
